{
	"authors": [
		"xor"
	],
	"copyright": "Copyright © 2019, xor",
	"dependencies": {
		"derelict-sdl2": "~>2.1.4"
	},
	"description": "A minimal D application.",
	"license": "proprietary",
	"name": "generative"
}